%YAML 1.1
%TAG !u! tag:unity3d.com,2011:
--- !u!114 &11400000
MonoBehaviour:
  m_ObjectHideFlags: 0
  m_PrefabParentObject: {fileID: 0}
  m_PrefabInternal: {fileID: 0}
  m_GameObject: {fileID: 0}
  m_Enabled: 1
  m_EditorHideFlags: 0
  m_Script: {fileID: 342976093, guid: 5eb872180e6624b46b2fa8b2229cc7ac, type: 3}
  m_Name: Common-log
  m_EditorClassIdentifier: 
  ruleName: Common
  rootDirectoryGUID: 3e73ea41a168e8b40aa4e74db8d28c4e
  rules:
  - sourcePath: Assets\Common\Scripts\Aabb2.cs
    sourceGUID: 19b8bf9d514a88840b1ec9eccdc54d6d
    targetPath: Assets\Plugins\Common\Scripts\Aabb2.cs
  - sourcePath: Assets\Common\Scripts\Assertion.cs
    sourceGUID: dee259586624f9c4088432a9e6f7d97a
    targetPath: Assets\Plugins\Common\Scripts\Assertion.cs
  - sourcePath: Assets\Common\Scripts\ColorUtils.cs
    sourceGUID: d2cd1c08f17228e4cbb4303c919fff69
    targetPath: Assets\Plugins\Common\Scripts\ColorUtils.cs
  - sourcePath: Assets\Common\Scripts\Command.cs
    sourceGUID: 0049e28ea9b837b4f82726198c20d941
    targetPath: Assets\Plugins\Common\Scripts\Command.cs
  - sourcePath: Assets\Common\Scripts\Comment.cs
    sourceGUID: a42453a0903ae544c884a1d5b71109fc
    targetPath: Assets\Plugins\Common\Scripts\Comment.cs
  - sourcePath: Assets\Common\Scripts\Comparison.cs
    sourceGUID: 89cae8cf144640c4599e1b8b8a6b2d85
    targetPath: Assets\Plugins\Common\Scripts\Comparison.cs
  - sourcePath: Assets\Common\Scripts\Countable.cs
    sourceGUID: 3f213394d508dff429442ffcb20009fe
    targetPath: Assets\Plugins\Common\Scripts\Countable.cs
  - sourcePath: Assets\Common\Scripts\CountdownTimer.cs
    sourceGUID: bb95bd28ae0400b4da43b4afe13a1531
    targetPath: Assets\Plugins\Common\Scripts\CountdownTimer.cs
  - sourcePath: Assets\Common\Scripts\DelegateCommand.cs
    sourceGUID: 11656f764c7784409b5505ac0b0ffab3
    targetPath: Assets\Plugins\Common\Scripts\DelegateCommand.cs
  - sourcePath: Assets\Common\Scripts\DontDestroyOnLoadComponent.cs
    sourceGUID: b0007dd05bb5931428760d5743696aa0
    targetPath: Assets\Plugins\Common\Scripts\DontDestroyOnLoadComponent.cs
  - sourcePath: Assets\Common\Scripts\FrameRate.cs
    sourceGUID: 7ae88b2c5323de0409878810cc57a231
    targetPath: Assets\Plugins\Common\Scripts\FrameRate.cs
  - sourcePath: Assets\Common\Scripts\FrameRateView.cs
    sourceGUID: 62dca5f03cbecd94b82f7efac708a577
    targetPath: Assets\Plugins\Common\Scripts\FrameRateView.cs
  - sourcePath: Assets\Common\Scripts\HierarchyColor.cs
    sourceGUID: 96c721b3d0cb2f84ea18d7cc1183d30c
    targetPath: Assets\Plugins\Common\Scripts\HierarchyColor.cs
  - sourcePath: Assets\Common\Scripts\HudOrthoAutoScale.cs
    sourceGUID: b8371295fbccb8c4fbb6a3792ca30465
    targetPath: Assets\Plugins\Common\Scripts\HudOrthoAutoScale.cs
  - sourcePath: Assets\Common\Scripts\IntAabb2.cs
    sourceGUID: cd79fdb66497d4f438ca827bd0a7dfe3
    targetPath: Assets\Plugins\Common\Scripts\IntAabb2.cs
  - sourcePath: Assets\Common\Scripts\InterpolationUtils.cs
    sourceGUID: 73cc626e79e114844b3e813a757a9272
    targetPath: Assets\Plugins\Common\Scripts\InterpolationUtils.cs
  - sourcePath: Assets\Common\Scripts\MeshMerger.cs
    sourceGUID: 72ecf2746d63eae4c8127fbdd27320b1
    targetPath: Assets\Plugins\Common\Scripts\MeshMerger.cs
  - sourcePath: Assets\Common\Scripts\MeshShaderSetter.cs
    sourceGUID: b827290cc5128154d84d190a1550eb2e
    targetPath: Assets\Plugins\Common\Scripts\MeshShaderSetter.cs
  - sourcePath: Assets\Common\Scripts\PixelScaler.cs
    sourceGUID: c9b108847960c334a8bfb224fe4e7f53
    targetPath: Assets\Plugins\Common\Scripts\PixelScaler.cs
  - sourcePath: Assets\Common\Scripts\PrefabManager.cs
    sourceGUID: 18bc0f97062c7b943af7886361a8d33b
    targetPath: Assets\Plugins\Common\Scripts\PrefabManager.cs
  - sourcePath: Assets\Common\Scripts\ProceduralTexturedQuad.cs
    sourceGUID: c9fa7f646840a194b8e117db5cdb856e
    targetPath: Assets\Plugins\Common\Scripts\ProceduralTexturedQuad.cs
  - sourcePath: Assets\Common\Scripts\Processor.cs
    sourceGUID: ba89b99db2b203743b0e2aeed2f979d3
    targetPath: Assets\Plugins\Common\Scripts\Processor.cs
  - sourcePath: Assets\Common\Scripts\QuaternionUtils.cs
    sourceGUID: b0066e468fe0cfe4a8e354a58f2e88af
    targetPath: Assets\Plugins\Common\Scripts\QuaternionUtils.cs
  - sourcePath: Assets\Common\Scripts\SelfManagingSwarmItemManager.cs
    sourceGUID: fd266ff34fc33d543bf52541db37eac5
    targetPath: Assets\Plugins\Common\Scripts\SelfManagingSwarmItemManager.cs
  - sourcePath: Assets\Common\Scripts\ThreadedCommandQueue.cs
    sourceGUID: fa3620e1cae1bcf4eae9ac2e931e5f3d
    targetPath: Assets\Plugins\Common\Scripts\ThreadedCommandQueue.cs
  - sourcePath: Assets\Common\Scripts\TimedRecycle.cs
    sourceGUID: 9348b372c8c121742a12b2099ba183d7
    targetPath: Assets\Plugins\Common\Scripts\TimedRecycle.cs
  - sourcePath: Assets\Common\Scripts\TouchCollider.cs
    sourceGUID: a7d8e960f78a8944ebecdde5cf81130c
    targetPath: Assets\Plugins\Common\Scripts\TouchCollider.cs
  - sourcePath: Assets\Common\Scripts\TypeUtils.cs
    sourceGUID: 9a30f72638f92fe4ca9fba3dcc247481
    targetPath: Assets\Plugins\Common\Scripts\TypeUtils.cs
  - sourcePath: Assets\Common\Scripts\UnityUtils.cs
    sourceGUID: 2c0e69d4d958daa499e3036ce002c53d
    targetPath: Assets\Plugins\Common\Scripts\UnityUtils.cs
  - sourcePath: Assets\Common\Scripts\UpdateManager.cs
    sourceGUID: 16d5426de15661a418067e66c79d119a
    targetPath: Assets\Plugins\Common\Scripts\UpdateManager.cs
  - sourcePath: Assets\Common\Scripts\VectorUtils.cs
    sourceGUID: a68548f1349e283469f2bcc61645cf9d
    targetPath: Assets\Plugins\Common\Scripts\VectorUtils.cs
  - sourcePath: Assets\Common\Scripts\Attributes\EditorHint.cs
    sourceGUID: 4950c99c12498544f904326636400c42
    targetPath: Assets\Plugins\Common\Scripts\Attributes\EditorHint.cs
  - sourcePath: Assets\Common\Scripts\Attributes\Group.cs
    sourceGUID: 5ea39ed2bedc506418d6dd649cd4e03d
    targetPath: Assets\Plugins\Common\Scripts\Attributes\Group.cs
  - sourcePath: Assets\Common\Scripts\Attributes\PropertyGroup.cs
    sourceGUID: 8dce873a8ee646a4a82cff9c201be48d
    targetPath: Assets\Plugins\Common\Scripts\Attributes\PropertyGroup.cs
  - sourcePath: Assets\Common\Scripts\Attributes\TextHint.cs
    sourceGUID: 0be41a83290e9fb4da733dcdfbd0eaa4
    targetPath: Assets\Plugins\Common\Scripts\Attributes\TextHint.cs
  - sourcePath: Assets\Common\Scripts\Audio\SoundEffectPlayer.cs
    sourceGUID: f263290de366efe4f836eff150e78931
    targetPath: Assets\Plugins\Common\Scripts\Audio\SoundEffectPlayer.cs
  - sourcePath: Assets\Common\Scripts\Camera\CameraPointerInput.cs
    sourceGUID: 1dffd8e9320359b47b55de38f20ddb9a
    targetPath: Assets\Plugins\Common\Scripts\Camera\CameraPointerInput.cs
  - sourcePath: Assets\Common\Scripts\Camera\OrthographicCamera.cs
    sourceGUID: ee2e792cff876c14f92abdbbbfb53925
    targetPath: Assets\Plugins\Common\Scripts\Camera\OrthographicCamera.cs
  - sourcePath: Assets\Common\Scripts\Camera\OrthographicCameraObserver.cs
    sourceGUID: 961c50c71a032f14a8d892481f2e2034
    targetPath: Assets\Plugins\Common\Scripts\Camera\OrthographicCameraObserver.cs
  - sourcePath: Assets\Common\Scripts\Extensions\DictionaryExtensions.cs
    sourceGUID: c2da874aa7dff5342ba92a89231c89fc
    targetPath: Assets\Plugins\Common\Scripts\Extensions\DictionaryExtensions.cs
  - sourcePath: Assets\Common\Scripts\Extensions\StringExtensions.cs
    sourceGUID: 25f23c96180a6e54db499dbe36a885b2
    targetPath: Assets\Plugins\Common\Scripts\Extensions\StringExtensions.cs
  - sourcePath: Assets\Common\Scripts\Fsm\Fsm.cs
    sourceGUID: 972d1b47a279526428ca2a004b10fa62
    targetPath: Assets\Plugins\Common\Scripts\Fsm\Fsm.cs
  - sourcePath: Assets\Common\Scripts\Fsm\FsmAction.cs
    sourceGUID: 75a155cc7cd991e4aad8c058fbbdbf09
    targetPath: Assets\Plugins\Common\Scripts\Fsm\FsmAction.cs
  - sourcePath: Assets\Common\Scripts\Fsm\FsmComponent.cs
    sourceGUID: 59358456617515145b7af7d0d96334fe
    targetPath: Assets\Plugins\Common\Scripts\Fsm\FsmComponent.cs
  - sourcePath: Assets\Common\Scripts\Fsm\FsmState.cs
    sourceGUID: 088747a9803a48649b3396e45f92d73c
    targetPath: Assets\Plugins\Common\Scripts\Fsm\FsmState.cs
  - sourcePath: Assets\Common\Scripts\Fsm\Action\FsmDelegateAction.cs
    sourceGUID: e7b1834c4e1a6b040ab0d4d390252031
    targetPath: Assets\Plugins\Common\Scripts\Fsm\Action\FsmDelegateAction.cs
  - sourcePath: Assets\Common\Scripts\Fsm\Action\MoveAction.cs
    sourceGUID: dbf14e250479c2d4a958cf3797654146
    targetPath: Assets\Plugins\Common\Scripts\Fsm\Action\MoveAction.cs
  - sourcePath: Assets\Common\Scripts\Fsm\Action\MoveAlongDirection.cs
    sourceGUID: 12594cf12455b4477b2a5a1e19a71108
    targetPath: Assets\Plugins\Common\Scripts\Fsm\Action\MoveAlongDirection.cs
  - sourcePath: Assets\Common\Scripts\Fsm\Action\MoveAlongDirectionByPolledTime.cs
    sourceGUID: b27185e275b2e4021aa3847c07a536b5
    targetPath: Assets\Plugins\Common\Scripts\Fsm\Action\MoveAlongDirectionByPolledTime.cs
  - sourcePath: Assets\Common\Scripts\Fsm\Action\MoveRectTransformByDuration.cs
    sourceGUID: 63c1646425a999446a23e8df87f17710
    targetPath: Assets\Plugins\Common\Scripts\Fsm\Action\MoveRectTransformByDuration.cs
  - sourcePath: Assets\Common\Scripts\Fsm\Action\NonResettingTimedWait.cs
    sourceGUID: 5a8ae7d6438ea421f8ccadec7bada8ce
    targetPath: Assets\Plugins\Common\Scripts\Fsm\Action\NonResettingTimedWait.cs
  - sourcePath: Assets\Common\Scripts\Fsm\Action\RotateAction.cs
    sourceGUID: 2499b0b7e2f8bbe488443ff1145a7b9b
    targetPath: Assets\Plugins\Common\Scripts\Fsm\Action\RotateAction.cs
  - sourcePath: Assets\Common\Scripts\Fsm\Action\ScaleAction.cs
    sourceGUID: 497aaea9bc5d94943a33231b1a6b0e34
    targetPath: Assets\Plugins\Common\Scripts\Fsm\Action\ScaleAction.cs
  - sourcePath: Assets\Common\Scripts\Fsm\Action\SetImageColorByDuration.cs
    sourceGUID: 1ffa185d1e21ce042bff8f28c0904324
    targetPath: Assets\Plugins\Common\Scripts\Fsm\Action\SetImageColorByDuration.cs
  - sourcePath: Assets\Common\Scripts\Fsm\Action\TimedFadeVolume.cs
    sourceGUID: 3f6d360263e6a49bf9318d49f32285d2
    targetPath: Assets\Plugins\Common\Scripts\Fsm\Action\TimedFadeVolume.cs
  - sourcePath: Assets\Common\Scripts\Fsm\Action\TimedWaitAction.cs
    sourceGUID: b13ac4606d3a3ae4bb5a3469880573b9
    targetPath: Assets\Plugins\Common\Scripts\Fsm\Action\TimedWaitAction.cs
  - sourcePath: Assets\Common\Scripts\Graphics\CombinedMesh.cs
    sourceGUID: ccd970f8f1c66e746a76e86a1f39da20
    targetPath: Assets\Plugins\Common\Scripts\Graphics\CombinedMesh.cs
  - sourcePath: Assets\Common\Scripts\Graphics\MeshPartHandle.cs
    sourceGUID: 35038003703f4f2468d41b97813162d3
    targetPath: Assets\Plugins\Common\Scripts\Graphics\MeshPartHandle.cs
  - sourcePath: Assets\Common\Scripts\Gui\ImageAnimation.cs
    sourceGUID: 27455afdbfdef0d45949f7106ae8f9b4
    targetPath: Assets\Plugins\Common\Scripts\Gui\ImageAnimation.cs
  - sourcePath: Assets\Common\Scripts\Gui\SelectionListGui.cs
    sourceGUID: 6b7a23485d5a4644586a1a21a144845a
    targetPath: Assets\Plugins\Common\Scripts\Gui\SelectionListGui.cs
  - sourcePath: Assets\Common\Scripts\Gui\Grid\GridContainer.cs
    sourceGUID: 6b815d06be95529459cf767ecf572ecc
    targetPath: Assets\Plugins\Common\Scripts\Gui\Grid\GridContainer.cs
  - sourcePath: Assets\Common\Scripts\Gui\Grid\GridFilter.cs
    sourceGUID: 64d376a75b28f5c4fb49d4329196c2b3
    targetPath: Assets\Plugins\Common\Scripts\Gui\Grid\GridFilter.cs
  - sourcePath: Assets\Common\Scripts\Gui\Grid\GridRow.cs
    sourceGUID: 4e6d4fcc531f6d94681ff5e11e03f84e
    targetPath: Assets\Plugins\Common\Scripts\Gui\Grid\GridRow.cs
  - sourcePath: Assets\Common\Scripts\Input\InputLayer.cs
    sourceGUID: e99ce17503e7d4a4aacfa1779c10dfd1
    targetPath: Assets\Plugins\Common\Scripts\Input\InputLayer.cs
  - sourcePath: Assets\Common\Scripts\Input\InputLayerElement.cs
    sourceGUID: d93419aaa76fa054b84e834691ea6fa2
    targetPath: Assets\Plugins\Common\Scripts\Input\InputLayerElement.cs
  - sourcePath: Assets\Common\Scripts\Input\InputLayerStack.cs
    sourceGUID: fdb30ed8775200c4285164cab5d5ecfe
    targetPath: Assets\Plugins\Common\Scripts\Input\InputLayerStack.cs
  - sourcePath: Assets\Common\Scripts\Logger\Log.cs
    sourceGUID: 5f938a650f894e54abe5b1fc841916a1
    targetPath: Assets\Plugins\Common\Scripts\Logger\Log.cs
  - sourcePath: Assets\Common\Scripts\Logger\Logger.cs
    sourceGUID: a1386392fc724f14a9e1f95411c689c7
    targetPath: Assets\Plugins\Common\Scripts\Logger\Logger.cs
  - sourcePath: Assets\Common\Scripts\Logger\LoggerComponent.cs
    sourceGUID: be234dd10ebcb474f9d007e7da47c894
    targetPath: Assets\Plugins\Common\Scripts\Logger\LoggerComponent.cs
  - sourcePath: Assets\Common\Scripts\Logger\LogLevel.cs
    sourceGUID: c630a826a752325468dc8bcd3105290a
    targetPath: Assets\Plugins\Common\Scripts\Logger\LogLevel.cs
  - sourcePath: Assets\Common\Scripts\Logger\QuickLogger.cs
    sourceGUID: 3e5bb4952a8540547adbd0e03001e01e
    targetPath: Assets\Plugins\Common\Scripts\Logger\QuickLogger.cs
  - sourcePath: Assets\Common\Scripts\Math\Bezier.cs
    sourceGUID: 097118b96e7bac0478e10694e1520952
    targetPath: Assets\Plugins\Common\Scripts\Math\Bezier.cs
  - sourcePath: Assets\Common\Scripts\Math\Gaussian.cs
    sourceGUID: b46c69ac30121054bb22d8c2e2b8a593
    targetPath: Assets\Plugins\Common\Scripts\Math\Gaussian.cs
  - sourcePath: Assets\Common\Scripts\Math\IntVector2.cs
    sourceGUID: 59c46a95a2ebaf34aa2fb26dbae00d3c
    targetPath: Assets\Plugins\Common\Scripts\Math\IntVector2.cs
  - sourcePath: Assets\Common\Scripts\NamedObjects\ClassData.cs
    sourceGUID: 9726b6660b47f7947a2efd0c3d458221
    targetPath: Assets\Plugins\Common\Scripts\NamedObjects\ClassData.cs
  - sourcePath: Assets\Common\Scripts\NamedObjects\Named.cs
    sourceGUID: 7499e4fec1a2c9d4c8c3b0fb4b082e6e
    targetPath: Assets\Plugins\Common\Scripts\NamedObjects\Named.cs
  - sourcePath: Assets\Common\Scripts\NamedObjects\NamedBool.cs
    sourceGUID: c51983117f7fa2143a52ae1374c8d4be
    targetPath: Assets\Plugins\Common\Scripts\NamedObjects\NamedBool.cs
  - sourcePath: Assets\Common\Scripts\NamedObjects\NamedBoolMap.cs
    sourceGUID: b1a5f66f4893c2444b65597755d44b90
    targetPath: Assets\Plugins\Common\Scripts\NamedObjects\NamedBoolMap.cs
  - sourcePath: Assets\Common\Scripts\NamedObjects\NamedFloat.cs
    sourceGUID: 2d8973203c672354893af7cdf5bba2c6
    targetPath: Assets\Plugins\Common\Scripts\NamedObjects\NamedFloat.cs
  - sourcePath: Assets\Common\Scripts\NamedObjects\NamedFloatMap.cs
    sourceGUID: d03d50949ede9244e978c6c14a619054
    targetPath: Assets\Plugins\Common\Scripts\NamedObjects\NamedFloatMap.cs
  - sourcePath: Assets\Common\Scripts\NamedObjects\NamedGameObject.cs
    sourceGUID: dc5f4fa7c8f9509419f579692eb573e8
    targetPath: Assets\Plugins\Common\Scripts\NamedObjects\NamedGameObject.cs
  - sourcePath: Assets\Common\Scripts\NamedObjects\NamedInt.cs
    sourceGUID: 0d411b031e912b248a89fa5882d30edd
    targetPath: Assets\Plugins\Common\Scripts\NamedObjects\NamedInt.cs
  - sourcePath: Assets\Common\Scripts\NamedObjects\NamedIntMap.cs
    sourceGUID: bc711b0794464e547a37ee8d125ea5a7
    targetPath: Assets\Plugins\Common\Scripts\NamedObjects\NamedIntMap.cs
  - sourcePath: Assets\Common\Scripts\NamedObjects\NamedIntVector2.cs
    sourceGUID: 564abbece4cf63f4eafd31c95e73a222
    targetPath: Assets\Plugins\Common\Scripts\NamedObjects\NamedIntVector2.cs
  - sourcePath: Assets\Common\Scripts\NamedObjects\NamedIntVector2Map.cs
    sourceGUID: ad8c8fb28e8e3ab46af564bbedf115a2
    targetPath: Assets\Plugins\Common\Scripts\NamedObjects\NamedIntVector2Map.cs
  - sourcePath: Assets\Common\Scripts\NamedObjects\NamedMap.cs
    sourceGUID: 1ac0979faf11d3748bce9bc9bd4a3168
    targetPath: Assets\Plugins\Common\Scripts\NamedObjects\NamedMap.cs
  - sourcePath: Assets\Common\Scripts\NamedObjects\NamedMapContainerWrapper.cs
    sourceGUID: f0222c8780c1f1b4daf6cf8a150e29f4
    targetPath: Assets\Plugins\Common\Scripts\NamedObjects\NamedMapContainerWrapper.cs
  - sourcePath: Assets\Common\Scripts\NamedObjects\NamedSprite.cs
    sourceGUID: a6e7a3fd881660445b4b6d5e9b5fd397
    targetPath: Assets\Plugins\Common\Scripts\NamedObjects\NamedSprite.cs
  - sourcePath: Assets\Common\Scripts\NamedObjects\NamedString.cs
    sourceGUID: edefba2b7e7939340900439e79a2242d
    targetPath: Assets\Plugins\Common\Scripts\NamedObjects\NamedString.cs
  - sourcePath: Assets\Common\Scripts\NamedObjects\NamedStringMap.cs
    sourceGUID: 5a9a18075cb7653448bb33271543a04e
    targetPath: Assets\Plugins\Common\Scripts\NamedObjects\NamedStringMap.cs
  - sourcePath: Assets\Common\Scripts\NamedObjects\NamedValue.cs
    sourceGUID: 61079cca3bb13b84fad336ff825eec3f
    targetPath: Assets\Plugins\Common\Scripts\NamedObjects\NamedValue.cs
  - sourcePath: Assets\Common\Scripts\NamedObjects\NamedValueContainer.cs
    sourceGUID: f6ce18c6cc69824498e912d1a620d98f
    targetPath: Assets\Plugins\Common\Scripts\NamedObjects\NamedValueContainer.cs
  - sourcePath: Assets\Common\Scripts\NamedObjects\NamedValueHolder.cs
    sourceGUID: 80140ac0eac563146a89dd7f3f047a05
    targetPath: Assets\Plugins\Common\Scripts\NamedObjects\NamedValueHolder.cs
  - sourcePath: Assets\Common\Scripts\NamedObjects\NamedValueLibrary.cs
    sourceGUID: 6d93355419ed37c47a73886fd014bd3f
    targetPath: Assets\Plugins\Common\Scripts\NamedObjects\NamedValueLibrary.cs
  - sourcePath: Assets\Common\Scripts\NamedObjects\NamedValueType.cs
    sourceGUID: 35e581ae896805e4aa9c25d23ddbfabc
    targetPath: Assets\Plugins\Common\Scripts\NamedObjects\NamedValueType.cs
  - sourcePath: Assets\Common\Scripts\NamedObjects\NamedValueUtils.cs
    sourceGUID: 45e37adceaceb5946a9e55775b39f0d5
    targetPath: Assets\Plugins\Common\Scripts\NamedObjects\NamedValueUtils.cs
  - sourcePath: Assets\Common\Scripts\NamedObjects\NamedVector3.cs
    sourceGUID: 2f890915820b78e4bb46ced488166165
    targetPath: Assets\Plugins\Common\Scripts\NamedObjects\NamedVector3.cs
  - sourcePath: Assets\Common\Scripts\NamedObjects\NamedVector3Map.cs
    sourceGUID: 152ffac12e4a05446a8b26ddb184c364
    targetPath: Assets\Plugins\Common\Scripts\NamedObjects\NamedVector3Map.cs
  - sourcePath: Assets\Common\Scripts\NamedObjects\ValueHolder.cs
    sourceGUID: b82d7e8aa4c88a944a4411ce4e786fee
    targetPath: Assets\Plugins\Common\Scripts\NamedObjects\ValueHolder.cs
  - sourcePath: Assets\Common\Scripts\Notification\Notification.cs
    sourceGUID: a9c86e11eb73ca6479ca43c1da710ea9
    targetPath: Assets\Plugins\Common\Scripts\Notification\Notification.cs
  - sourcePath: Assets\Common\Scripts\Notification\NotificationHandler.cs
    sourceGUID: 379e038aab1b1e945bd122dc80181314
    targetPath: Assets\Plugins\Common\Scripts\Notification\NotificationHandler.cs
  - sourcePath: Assets\Common\Scripts\Notification\NotificationHandlerComponent.cs
    sourceGUID: b5bea5c2bba6dfe4f89ea25363417aed
    targetPath: Assets\Plugins\Common\Scripts\Notification\NotificationHandlerComponent.cs
  - sourcePath: Assets\Common\Scripts\Notification\NotificationInstance.cs
    sourceGUID: 602e3acdb01c04049827c5f361e1be50
    targetPath: Assets\Plugins\Common\Scripts\Notification\NotificationInstance.cs
  - sourcePath: Assets\Common\Scripts\Notification\NotificationSystem.cs
    sourceGUID: de39c1fb9c8e61e47b648df577ef2cd6
    targetPath: Assets\Plugins\Common\Scripts\Notification\NotificationSystem.cs
  - sourcePath: Assets\Common\Scripts\Notification\NotificationSystemComponent.cs
    sourceGUID: e03c5d61b55da644da2280ac6dc0288e
    targetPath: Assets\Plugins\Common\Scripts\Notification\NotificationSystemComponent.cs
  - sourcePath: Assets\Common\Scripts\Pair\Property.cs
    sourceGUID: 21f17fd0deb5d4041b45ddd9902d56a7
    targetPath: Assets\Plugins\Common\Scripts\Pair\Property.cs
  - sourcePath: Assets\Common\Scripts\Pair\SerializedKeyValue.cs
    sourceGUID: 80985e6293c7cda4d9a4b2031485bac8
    targetPath: Assets\Plugins\Common\Scripts\Pair\SerializedKeyValue.cs
  - sourcePath: Assets\Common\Scripts\Pair\SerializedPair.cs
    sourceGUID: bb5dc3d2f614ae84a82eb24d7e8986ae
    targetPath: Assets\Plugins\Common\Scripts\Pair\SerializedPair.cs
  - sourcePath: Assets\Common\Scripts\Query\ConcreteQueryRequest.cs
    sourceGUID: e4cf3d52e255e1e439e23682b6bdc8d8
    targetPath: Assets\Plugins\Common\Scripts\Query\ConcreteQueryRequest.cs
  - sourcePath: Assets\Common\Scripts\Query\IQueryRequest.cs
    sourceGUID: ca73202e030335a43b994dc5047ab7a5
    targetPath: Assets\Plugins\Common\Scripts\Query\IQueryRequest.cs
  - sourcePath: Assets\Common\Scripts\Query\IQueryResult.cs
    sourceGUID: feabaa82ce4228646a1348e4f1a63162
    targetPath: Assets\Plugins\Common\Scripts\Query\IQueryResult.cs
  - sourcePath: Assets\Common\Scripts\Query\QueryManager.cs
    sourceGUID: 93a6e57be10c9604998fdf54be63f471
    targetPath: Assets\Plugins\Common\Scripts\Query\QueryManager.cs
  - sourcePath: Assets\Common\Scripts\Query\QueryManagerImplementation.cs
    sourceGUID: 019218ce021c9e04ca1c4bac3886a24c
    targetPath: Assets\Plugins\Common\Scripts\Query\QueryManagerImplementation.cs
  - sourcePath: Assets\Common\Scripts\Query\QueryRequest.cs
    sourceGUID: 7d160ce1f68cc1e4cb6fb739174edd89
    targetPath: Assets\Plugins\Common\Scripts\Query\QueryRequest.cs
  - sourcePath: Assets\Common\Scripts\Query\QueryResultResolver.cs
    sourceGUID: 09dfcad6ed20e2149b6f3025738be035
    targetPath: Assets\Plugins\Common\Scripts\Query\QueryResultResolver.cs
  - sourcePath: Assets\Common\Scripts\Query\QuerySystem.cs
    sourceGUID: 49ffebe38e44b85418b70ad29c1ee320
    targetPath: Assets\Plugins\Common\Scripts\Query\QuerySystem.cs
  - sourcePath: Assets\Common\Scripts\Query\QuerySystemImplementation.cs
    sourceGUID: b18b8ae4a363a504fb1ee39050b419a2
    targetPath: Assets\Plugins\Common\Scripts\Query\QuerySystemImplementation.cs
  - sourcePath: Assets\Common\Scripts\SceneLoadingSystem\LoadProfile.cs
    sourceGUID: 22261efba09b81c47ba4ec2603955c82
    targetPath: Assets\Plugins\Common\Scripts\SceneLoadingSystem\LoadProfile.cs
  - sourcePath: Assets\Common\Scripts\SceneLoadingSystem\SceneLoadingSystem.cs
    sourceGUID: 2829227f8f40fb94185707b3bca6c606
    targetPath: Assets\Plugins\Common\Scripts\SceneLoadingSystem\SceneLoadingSystem.cs
  - sourcePath: Assets\Common\Scripts\SceneLoadingSystem\SceneSet.cs
    sourceGUID: c1245eced6f43ea4fbaf2c8f768f719f
    targetPath: Assets\Plugins\Common\Scripts\SceneLoadingSystem\SceneSet.cs
  - sourcePath: Assets\Common\Scripts\Signal\ConcreteSignalParameters.cs
    sourceGUID: baefd1fd071be3340a928e4031fdad05
    targetPath: Assets\Plugins\Common\Scripts\Signal\ConcreteSignalParameters.cs
  - sourcePath: Assets\Common\Scripts\Signal\ISignalParameters.cs
    sourceGUID: c227a059d8afefe44bf5c9e333fed3c3
    targetPath: Assets\Plugins\Common\Scripts\Signal\ISignalParameters.cs
  - sourcePath: Assets\Common\Scripts\Signal\Signal.cs
    sourceGUID: afb9f3c503960394381972f6c71423ab
    targetPath: Assets\Plugins\Common\Scripts\Signal\Signal.cs
  - sourcePath: Assets\Common\Scripts\Signal\SignalIntegrity.cs
    sourceGUID: 8b9c48932f5cbb445add4e7147d9b67b
    targetPath: Assets\Plugins\Common\Scripts\Signal\SignalIntegrity.cs
  - sourcePath: Assets\Common\Scripts\Signal\SignalIntegrityHandler.cs
    sourceGUID: 61d1a2d8d834ab649aca063683df06c8
    targetPath: Assets\Plugins\Common\Scripts\Signal\SignalIntegrityHandler.cs
  - sourcePath: Assets\Common\Scripts\Signal\SignalListenerPair.cs
    sourceGUID: 6fc69f42215ee4643bc450e7dd4c9572
    targetPath: Assets\Plugins\Common\Scripts\Signal\SignalListenerPair.cs
  - sourcePath: Assets\Common\Scripts\Signal\StringToSignalMapper.cs
    sourceGUID: 510c2dfd04d34492d84449fe7bdafd58
    targetPath: Assets\Plugins\Common\Scripts\Signal\StringToSignalMapper.cs
  - sourcePath: Assets\Common\Scripts\Time\TimeReference.cs
    sourceGUID: 346fbada237619f41aaff7515a753805
    targetPath: Assets\Plugins\Common\Scripts\Time\TimeReference.cs
  - sourcePath: Assets\Common\Scripts\Time\TimeReferencePool.cs
    sourceGUID: 13d82433641920045bb493d38ed0d64e
    targetPath: Assets\Plugins\Common\Scripts\Time\TimeReferencePool.cs
  - sourcePath: Assets\Common\Scripts\Transform\PixelTransform.cs
    sourceGUID: 2813679938d5d424caa6a745dbe5ad40
    targetPath: Assets\Plugins\Common\Scripts\Transform\PixelTransform.cs
  - sourcePath: Assets\Common\Scripts\Transform\RotationInRadians.cs
    sourceGUID: 8a721e5d26b904fb9b2b6dc99e456b4a
    targetPath: Assets\Plugins\Common\Scripts\Transform\RotationInRadians.cs
  - sourcePath: Assets\Common\Scripts\UnityExtensions\BoundsExtensions.cs
    sourceGUID: e4d80c0f3ec28ce40854f9c8cb718e60
    targetPath: Assets\Plugins\Common\Scripts\UnityExtensions\BoundsExtensions.cs
  - sourcePath: Assets\Common\Scripts\UnityExtensions\GameObjectExtensions.cs
    sourceGUID: 654e6fc5ff2f11d449de897d3465b658
    targetPath: Assets\Plugins\Common\Scripts\UnityExtensions\GameObjectExtensions.cs
  - sourcePath: Assets\Common\Scripts\UnityExtensions\TransformExtensions.cs
    sourceGUID: f02123a02b52b8342b5a57436b642bb1
    targetPath: Assets\Plugins\Common\Scripts\UnityExtensions\TransformExtensions.cs
  - sourcePath: Assets\Common\Scripts\UnityExtensions\Vector3Extensions.cs
    sourceGUID: 7bcfddd78c07fb84e97a053f4f56a2a6
    targetPath: Assets\Plugins\Common\Scripts\UnityExtensions\Vector3Extensions.cs
  - sourcePath: Assets\Common\Scripts\UnityExtensions\UI\SliderExtensions.cs
    sourceGUID: 2afc5ac14099c7848af758b9c6709c30
    targetPath: Assets\Plugins\Common\Scripts\UnityExtensions\UI\SliderExtensions.cs
  - sourcePath: Assets\Common\Scripts\Utils\DataClassPool.cs
    sourceGUID: 207a20f49eba0f64f8faa51c35185a91
    targetPath: Assets\Plugins\Common\Scripts\Utils\DataClassPool.cs
  - sourcePath: Assets\Common\Scripts\Utils\ICondition.cs
    sourceGUID: b95057368af26d542b8a2aaa669237c0
    targetPath: Assets\Plugins\Common\Scripts\Utils\ICondition.cs
  - sourcePath: Assets\Common\Scripts\Utils\Identifiable.cs
    sourceGUID: b23d7111185d9554cadbe5a848e89a7b
    targetPath: Assets\Plugins\Common\Scripts\Utils\Identifiable.cs
  - sourcePath: Assets\Common\Scripts\Utils\IdentifiableSet.cs
    sourceGUID: 56582fc7654332f4bb4f56354ed02034
    targetPath: Assets\Plugins\Common\Scripts\Utils\IdentifiableSet.cs
  - sourcePath: Assets\Common\Scripts\Utils\IEncryption.cs
    sourceGUID: a768858066b16144a8ad44b8fca9417a
    targetPath: Assets\Plugins\Common\Scripts\Utils\IEncryption.cs
  - sourcePath: Assets\Common\Scripts\Utils\ImmutableList.cs
    sourceGUID: f3836f51f58280b4b8e722f1f40c392e
    targetPath: Assets\Plugins\Common\Scripts\Utils\ImmutableList.cs
  - sourcePath: Assets\Common\Scripts\Utils\IndexCursor.cs
    sourceGUID: 801ecc22f8d242549aedc5787ff35274
    targetPath: Assets\Plugins\Common\Scripts\Utils\IndexCursor.cs
  - sourcePath: Assets\Common\Scripts\Utils\Initializable.cs
    sourceGUID: 655cc4815337d8449aca494ca47157e5
    targetPath: Assets\Plugins\Common\Scripts\Utils\Initializable.cs
  - sourcePath: Assets\Common\Scripts\Utils\IntIdentifiable.cs
    sourceGUID: 84e688bdf4a7b18448338f5899615d20
    targetPath: Assets\Plugins\Common\Scripts\Utils\IntIdentifiable.cs
  - sourcePath: Assets\Common\Scripts\Utils\IRecyclable.cs
    sourceGUID: 521ea0a44a0c24f4ea7aa23f1ffc3225
    targetPath: Assets\Plugins\Common\Scripts\Utils\IRecyclable.cs
  - sourcePath: Assets\Common\Scripts\Utils\IVisitor.cs
    sourceGUID: 2196d1d06f9238345bc7b1e9a14066ad
    targetPath: Assets\Plugins\Common\Scripts\Utils\IVisitor.cs
  - sourcePath: Assets\Common\Scripts\Utils\ListDictionary.cs
    sourceGUID: 3d3c403fda02a3c4db240dbad8b1684c
    targetPath: Assets\Plugins\Common\Scripts\Utils\ListDictionary.cs
  - sourcePath: Assets\Common\Scripts\Utils\Pool.cs
    sourceGUID: ba3b1322070bdc74db264706cc25d2a7
    targetPath: Assets\Plugins\Common\Scripts\Utils\Pool.cs
  - sourcePath: Assets\Common\Scripts\Utils\PopupValueSet.cs
    sourceGUID: 3485d39fa48dcaa4eaaa89d2e861c1b4
    targetPath: Assets\Plugins\Common\Scripts\Utils\PopupValueSet.cs
  - sourcePath: Assets\Common\Scripts\Utils\QuickMap.cs
    sourceGUID: a35f2910c38766144b06dcca91e2c0be
    targetPath: Assets\Plugins\Common\Scripts\Utils\QuickMap.cs
  - sourcePath: Assets\Common\Scripts\Utils\Result.cs
    sourceGUID: 4b28a018e165a634d9554be84626c0e7
    targetPath: Assets\Plugins\Common\Scripts\Utils\Result.cs
  - sourcePath: Assets\Common\Scripts\Utils\Roulette.cs
    sourceGUID: ec46a8bc403b19044894f6e4ccb719ec
    targetPath: Assets\Plugins\Common\Scripts\Utils\Roulette.cs
  - sourcePath: Assets\Common\Scripts\Utils\RouletteEntry.cs
    sourceGUID: 0c861af44fd1ac8449b6fda1f990ab28
    targetPath: Assets\Plugins\Common\Scripts\Utils\RouletteEntry.cs
  - sourcePath: Assets\Common\Scripts\Utils\SelectionSequence.cs
    sourceGUID: e239f2ab97b14574b8d52dad9762134e
    targetPath: Assets\Plugins\Common\Scripts\Utils\SelectionSequence.cs
  - sourcePath: Assets\Common\Scripts\Utils\SerializedKeyValue.cs
    sourceGUID: 75fdda5721287244993477d577f0e8ff
    targetPath: Assets\Plugins\Common\Scripts\Utils\SerializedKeyValue.cs
  - sourcePath: Assets\Common\Scripts\Utils\SimpleEncryption.cs
    sourceGUID: 98c287165f136974cab3eccfc7210a24
    targetPath: Assets\Plugins\Common\Scripts\Utils\SimpleEncryption.cs
  - sourcePath: Assets\Common\Scripts\Utils\SimpleList.cs
    sourceGUID: b884b8322ea9bf144b1284a86e6d9665
    targetPath: Assets\Plugins\Common\Scripts\Utils\SimpleList.cs
  - sourcePath: Assets\Common\Scripts\Utils\TextUtils.cs
    sourceGUID: 5793517e699e54741b38e6368a8ac770
    targetPath: Assets\Plugins\Common\Scripts\Utils\TextUtils.cs
  - sourcePath: Assets\Common\Scripts\Utils\UniqueSet.cs
    sourceGUID: c7353490f9390f440a6e3de7b82fc66e
    targetPath: Assets\Plugins\Common\Scripts\Utils\UniqueSet.cs
  - sourcePath: Assets\Common\Scripts\Variables\BoolGameVariable.cs
    sourceGUID: 81f63954083bae142afbd57473025031
    targetPath: Assets\Plugins\Common\Scripts\Variables\BoolGameVariable.cs
  - sourcePath: Assets\Common\Scripts\Variables\FloatGameVariable.cs
    sourceGUID: 47dd0a087ca7a9c47b495eb2d72790a6
    targetPath: Assets\Plugins\Common\Scripts\Variables\FloatGameVariable.cs
  - sourcePath: Assets\Common\Scripts\Variables\GameVariable.cs
    sourceGUID: 121a5fcbb85fcab4f8b854765809fdbd
    targetPath: Assets\Plugins\Common\Scripts\Variables\GameVariable.cs
  - sourcePath: Assets\Common\Scripts\Variables\GameVariableMap.cs
    sourceGUID: d777a29e206f1b543ad2dabff6ba97bc
    targetPath: Assets\Plugins\Common\Scripts\Variables\GameVariableMap.cs
  - sourcePath: Assets\Common\Scripts\Variables\GameVariableOverrideResolver.cs
    sourceGUID: 2cfce689d1d305040b06d8f6516c32d7
    targetPath: Assets\Plugins\Common\Scripts\Variables\GameVariableOverrideResolver.cs
  - sourcePath: Assets\Common\Scripts\Variables\GameVariables.cs
    sourceGUID: 0b86b12ad04f0634d94a92b8659ac040
    targetPath: Assets\Plugins\Common\Scripts\Variables\GameVariables.cs
  - sourcePath: Assets\Common\Scripts\Variables\GameVariableSet.cs
    sourceGUID: fada4cbc07d1fb540b5a3182b3609cf9
    targetPath: Assets\Plugins\Common\Scripts\Variables\GameVariableSet.cs
  - sourcePath: Assets\Common\Scripts\Variables\GameVariablesQuery.cs
    sourceGUID: d0248b57983403844b161011722d0b94
    targetPath: Assets\Plugins\Common\Scripts\Variables\GameVariablesQuery.cs
  - sourcePath: Assets\Common\Scripts\Variables\IntGameVariable.cs
    sourceGUID: 95a6e78594610fd458420fd9920741a8
    targetPath: Assets\Plugins\Common\Scripts\Variables\IntGameVariable.cs
  - sourcePath: Assets\Common\Scripts\Variables\SetActiveByGameVariable.cs
    sourceGUID: a3401bb7f23dc7d48a014f3b49f152f6
    targetPath: Assets\Plugins\Common\Scripts\Variables\SetActiveByGameVariable.cs
  - sourcePath: Assets\Common\Scripts\Variables\StringGameVariable.cs
    sourceGUID: 2fc0b24d6381fa9488f73c3186d4e148
    targetPath: Assets\Plugins\Common\Scripts\Variables\StringGameVariable.cs
  - sourcePath: Assets\Common\Scripts\Xml\SimpleXmlNode.cs
    sourceGUID: 8653f49bed6c3ca45a6ece7d9c95e7bd
    targetPath: Assets\Plugins\Common\Scripts\Xml\SimpleXmlNode.cs
  - sourcePath: Assets\Common\Scripts\Xml\SimpleXmlNodeList.cs
    sourceGUID: f5b89a15c6069ff4d83f8d829de1b79e
    targetPath: Assets\Plugins\Common\Scripts\Xml\SimpleXmlNodeList.cs
  - sourcePath: Assets\Common\Scripts\Xml\SimpleXmlReader.cs
    sourceGUID: 79356a2e18a50cb4186aea3bf233a1d4
    targetPath: Assets\Plugins\Common\Scripts\Xml\SimpleXmlReader.cs
  - sourcePath: Assets\Common\Scripts\Xml\Tests\XmlTest.cs
    sourceGUID: daadee1d9cb3ec34398bd33201246584
    targetPath: Assets\Plugins\Common\Scripts\Xml\Tests\XmlTest.cs
  forRemoval: 0
  forRemovalDeleteEmptyDirs: 0
  persistent: 1
