%YAML 1.1
%TAG !u! tag:unity3d.com,2011:
--- !u!114 &11400000
MonoBehaviour:
  m_ObjectHideFlags: 0
  m_PrefabParentObject: {fileID: 0}
  m_PrefabInternal: {fileID: 0}
  m_GameObject: {fileID: 0}
  m_Enabled: 1
  m_EditorHideFlags: 0
  m_Script: {fileID: 342976093, guid: 5eb872180e6624b46b2fa8b2229cc7ac, type: 3}
  m_Name: ShadowStar-log
  m_EditorClassIdentifier: 
  ruleName: ShadowStar
  rootDirectoryGUID: 20e717f25c02feb44a01fcb2a2d4369e
  rules:
  - sourcePath: Assets\ShadowStar\Scripts\AStar\AStar.cs
    sourceGUID: badd85fdc62ba184eba364bc6d9dce31
    targetPath: Assets\Plugins\ShadowStar\Scripts\AStar\AStar.cs
  - sourcePath: Assets\ShadowStar\Scripts\AStar\AStarNode.cs
    sourceGUID: 77a4ab24ed1d27e499aac49187449046
    targetPath: Assets\Plugins\ShadowStar\Scripts\AStar\AStarNode.cs
  - sourcePath: Assets\ShadowStar\Scripts\AStar\AStarNodeComparator.cs
    sourceGUID: 4e36cc797723a764ebdb7827f1827f19
    targetPath: Assets\Plugins\ShadowStar\Scripts\AStar\AStarNodeComparator.cs
  - sourcePath: Assets\ShadowStar\Scripts\AStar\AStarNodePool.cs
    sourceGUID: 3eb2064688564744897b3e384b2b40a5
    targetPath: Assets\Plugins\ShadowStar\Scripts\AStar\AStarNodePool.cs
  - sourcePath: Assets\ShadowStar\Scripts\AStar\AStarPath.cs
    sourceGUID: d5ffc705e2f1b9948bc2eb229f5de719
    targetPath: Assets\Plugins\ShadowStar\Scripts\AStar\AStarPath.cs
  - sourcePath: Assets\ShadowStar\Scripts\AStar\AStarResolution.cs
    sourceGUID: d74c80f138d1e0442867244ab2d197c6
    targetPath: Assets\Plugins\ShadowStar\Scripts\AStar\AStarResolution.cs
  - sourcePath: Assets\ShadowStar\Scripts\AStar\AStarThreadQueue.cs
    sourceGUID: d3f0883180ac05042bb8f59cb6ad578c
    targetPath: Assets\Plugins\ShadowStar\Scripts\AStar\AStarThreadQueue.cs
  - sourcePath: Assets\ShadowStar\Scripts\AStar\GoalIdentifier.cs
    sourceGUID: 85096ddb11de5b44e893d14bd948d992
    targetPath: Assets\Plugins\ShadowStar\Scripts\AStar\GoalIdentifier.cs
  - sourcePath: Assets\ShadowStar\Scripts\AStar\HeuristicCostCalculator.cs
    sourceGUID: 06844d440e503fa438ecad09279da0f5
    targetPath: Assets\Plugins\ShadowStar\Scripts\AStar\HeuristicCostCalculator.cs
  - sourcePath: Assets\ShadowStar\Scripts\AStar\Link.cs
    sourceGUID: 5490160b2a386de46855293626ed6141
    targetPath: Assets\Plugins\ShadowStar\Scripts\AStar\Link.cs
  - sourcePath: Assets\ShadowStar\Scripts\AStar\MultipleFrameAStar.cs
    sourceGUID: 533b3fc3eb0074144933c520ec221baa
    targetPath: Assets\Plugins\ShadowStar\Scripts\AStar\MultipleFrameAStar.cs
  - sourcePath: Assets\ShadowStar\Scripts\AStar\NodeHandle.cs
    sourceGUID: 19e4ede933c947b429d87a698cc4e87f
    targetPath: Assets\Plugins\ShadowStar\Scripts\AStar\NodeHandle.cs
  - sourcePath: Assets\ShadowStar\Scripts\AStar\OpenSet.cs
    sourceGUID: 87e6ea0afc2b1c049bbf6555d7d7bbb4
    targetPath: Assets\Plugins\ShadowStar\Scripts\AStar\OpenSet.cs
  - sourcePath: Assets\ShadowStar\Scripts\AStar\Reachability.cs
    sourceGUID: 96f55ac471c37794186fd18e3d6ca4c5
    targetPath: Assets\Plugins\ShadowStar\Scripts\AStar\Reachability.cs
  - sourcePath: Assets\ShadowStar\Scripts\Graph\Graph.cs
    sourceGUID: a0a9e8db49bf268448ad6f3d081077c4
    targetPath: Assets\Plugins\ShadowStar\Scripts\Graph\Graph.cs
  - sourcePath: Assets\ShadowStar\Scripts\Graph\GraphArc.cs
    sourceGUID: 986fcc3f1b36bcc409cfac7fead3eaf0
    targetPath: Assets\Plugins\ShadowStar\Scripts\Graph\GraphArc.cs
  - sourcePath: Assets\ShadowStar\Scripts\Graph\GraphNode.cs
    sourceGUID: 2b03c296fb500294eb1ce726c4122fe8
    targetPath: Assets\Plugins\ShadowStar\Scripts\Graph\GraphNode.cs
  - sourcePath: Assets\ShadowStar\Scripts\Test\IntComparator.cs
    sourceGUID: f43e01e0a235eb747859b8ec424b4a11
    targetPath: Assets\Plugins\ShadowStar\Scripts\Test\IntComparator.cs
  - sourcePath: Assets\ShadowStar\Scripts\Test\Test.cs
    sourceGUID: aba871059d07f124f95088ea46f76c64
    targetPath: Assets\Plugins\ShadowStar\Scripts\Test\Test.cs
  - sourcePath: Assets\ShadowStar\Scripts\Test\TestTile.cs
    sourceGUID: dd5f653912d8d99498d262ffe628b588
    targetPath: Assets\Plugins\ShadowStar\Scripts\Test\TestTile.cs
  - sourcePath: Assets\ShadowStar\Scripts\Test\TileGrid.cs
    sourceGUID: e8ac0f24e626b5348a8e1afeb01600b3
    targetPath: Assets\Plugins\ShadowStar\Scripts\Test\TileGrid.cs
  - sourcePath: Assets\ShadowStar\Scripts\Test\TileHeuristicCostCalculator.cs
    sourceGUID: e058d98056cfc094abb6c7b9106b2737
    targetPath: Assets\Plugins\ShadowStar\Scripts\Test\TileHeuristicCostCalculator.cs
  - sourcePath: Assets\ShadowStar\Scripts\Test\TileLink.cs
    sourceGUID: 998b43e7efd5a1043bed69a589b428a5
    targetPath: Assets\Plugins\ShadowStar\Scripts\Test\TileLink.cs
  - sourcePath: Assets\ShadowStar\Scripts\Test\TilePosition.cs
    sourceGUID: 934c091ad6700cf45b3cb2680e381e16
    targetPath: Assets\Plugins\ShadowStar\Scripts\Test\TilePosition.cs
  - sourcePath: Assets\ShadowStar\Scripts\Test\TileTable.cs
    sourceGUID: 65645495246f91846adae531620d6f5f
    targetPath: Assets\Plugins\ShadowStar\Scripts\Test\TileTable.cs
  - sourcePath: Assets\ShadowStar\Scripts\Utils\BhNode.cs
    sourceGUID: 63b8ba703bddda94bbc6015e6621c172
    targetPath: Assets\Plugins\ShadowStar\Scripts\Utils\BhNode.cs
  - sourcePath: Assets\ShadowStar\Scripts\Utils\BhNodePool.cs
    sourceGUID: 508c18c378338444dbcd4ed220fd2ad3
    targetPath: Assets\Plugins\ShadowStar\Scripts\Utils\BhNodePool.cs
  - sourcePath: Assets\ShadowStar\Scripts\Utils\BinaryHeap.cs
    sourceGUID: b35397ac0d7326f4a8d28a8fa16e5c26
    targetPath: Assets\Plugins\ShadowStar\Scripts\Utils\BinaryHeap.cs
  - sourcePath: Assets\ShadowStar\Scripts\Utils\BinaryHeapComparator.cs
    sourceGUID: aba4945f9ed78e24d958797c82459826
    targetPath: Assets\Plugins\ShadowStar\Scripts\Utils\BinaryHeapComparator.cs
  forRemoval: 0
  forRemovalDeleteEmptyDirs: 0
  persistent: 1
